<?xml version="1.0" encoding="UTF-8" standalone="no"?>
<svg width="24px" height="26px" viewBox="0 0 24 26" version="1.1" xmlns="http://www.w3.org/2000/svg" xmlns:xlink="http://www.w3.org/1999/xlink">
    <!-- Generator: Sketch 50.2 (55047) - http://www.bohemiancoding.com/sketch -->
    <title>Group 43</title>
    <desc>Created with Sketch.</desc>
    <defs></defs>
    <g id="PAGE-HOME-NEW-LAESCALA" stroke="none" stroke-width="1" fill="none" fill-rule="evenodd">
        <g id="Sub-Menu-Desktop" transform="translate(-418.000000, -248.000000)">
            <g id="Group-13" transform="translate(403.000000, 233.000000)">
                <g id="Group-12">
                    <g id="Group-43" transform="translate(15.000000, 15.000000)">
                        <polygon id="Fill-1" fill="#E13237" points="11.8330307 0 0 4.31569942 1.84446626 20.246185 11.8614479 25.9232023 22.0200736 20.1881734 23.9782086 4.22883237"></polygon>
                        <polygon id="Fill-2" fill="#B42E31" points="11.7791411 0 11.7791411 25.9232023 21.9379141 20.1881734 23.8959018 4.22883237"></polygon>
                        <path d="M11.8234601,8.36418497 L14.320638,13.6647283 L9.63842945,13.6647283 L11.8234601,8.36418497 Z M11.7950429,3.00578035 L4.41717791,19.7182197 L7.16966871,19.6603584 L8.64530061,15.8948671 L15.2286626,15.8948671 L16.8460859,19.7182197 L19.4567853,19.7760809 L11.7950429,3.00578035 Z" id="Fill-3" fill="#FFFFFF"></path>
                    </g>
                </g>
            </g>
        </g>
    </g>
</svg>