<?xml version="1.0" encoding="UTF-8" standalone="no"?>
<svg width="26px" height="30px" viewBox="0 0 26 30" version="1.1" xmlns="http://www.w3.org/2000/svg" xmlns:xlink="http://www.w3.org/1999/xlink">
    <!-- Generator: Sketch 50.2 (55047) - http://www.bohemiancoding.com/sketch -->
    <title>Group</title>
    <desc>Created with Sketch.</desc>
    <defs></defs>
    <g id="PAGE-HOME-NEW-LAESCALA" stroke="none" stroke-width="1" fill="none" fill-rule="evenodd">
        <g id="Sub-Menu-Desktop" transform="translate(-630.000000, -246.000000)" fill="#66A060" fill-rule="nonzero">
            <g id="Group-47" transform="translate(616.000000, 94.000000)">
                <g id="Group-25" transform="translate(0.000000, 139.000000)">
                    <g id="Group-9">
                        <g id="Group" transform="translate(14.000000, 13.000000)">
                            <path d="M19.09895,13.1993478 C19.09895,13.1993478 18.8536833,11.0843478 16.5988333,11.0843478 C14.3437667,11.0843478 12.7998,11.3793478 12.7998,12.6336957 C12.7998,13.8880435 17.1873,13.8880435 18.8541167,14.3797826 C20.5209333,14.8715217 21.99145,16.1504348 21.2560833,18.4130435 C20.5207167,20.6756522 18.26565,20.9215217 14.7851167,20.9215217 C11.3045833,20.9215217 10.5200333,18.0193478 10.5200333,16.8882609 L12.4808667,16.8882609 C12.4808667,16.8882609 12.2356,18.658913 14.5396333,18.953913 C16.8436667,19.248913 19.0467333,19.415 19.3437833,17.626087 C19.73595,15.265 11.8924,16.4456522 11.206,14.133913 C10.6262,12.1806522 10.9607333,9.60891304 14.8826167,9.21521739 C18.8045,8.82152174 20.9614167,10.558913 20.9614167,13.1502174 L19.09895,13.1993478 Z" id="Shape"></path>
                            <path d="M0.15665,22.4197826 L4.49171667,24.9308696 C6.66986667,26.1926087 9.3925,24.6154348 9.3925,22.0919565 L9.3925,17.6915217 L9.3925,9.59304348 L7.62558333,9.59304348 L7.62558333,21.598913 C7.62558333,22.9769565 6.13881667,23.8384783 4.9491,23.1491304 L1.92335,21.3965217 L1.92335,8.58347826 L12.9826667,2.1776087 L24.0419833,8.58347826 L24.0419833,21.3965217 L12.9826667,27.8023913 L9.7968,25.9569565 L7.71636667,26.7986957 L12.98245,29.8493478 L25.8086833,22.4191304 L25.8086833,7.56021739 L12.9826667,0.130434783 L0.156433333,7.56065217 L0.156433333,22.4197826 L0.15665,22.4197826 Z" id="Shape"></path>
                        </g>
                    </g>
                </g>
            </g>
        </g>
    </g>
</svg>