<?xml version="1.0" encoding="UTF-8"?>
<svg width="184px" height="191px" viewBox="0 0 184 191" version="1.1" xmlns="http://www.w3.org/2000/svg" xmlns:xlink="http://www.w3.org/1999/xlink">
    <!-- Generator: Sketch 61.2 (89653) - https://sketch.com -->
    <title>Group 52</title>
    <desc>Created with Sketch.</desc>
    <g id="PAGE-HOME-NEW-LAESCALA" stroke="none" stroke-width="1" fill="none" fill-rule="evenodd">
        <g id="DESKTOP" transform="translate(-886.000000, -4998.000000)">
            <g id="Group-52" transform="translate(886.000000, 4998.000000)">
                <rect id="Rectangle-17" fill="#FFFFFF" x="0" y="0" width="150" height="150" rx="10"></rect>
                <g id="Group-51" transform="translate(11.000000, 16.000000)">
                    <g id="Group-15" transform="translate(86.500000, 87.500000) rotate(-180.000000) translate(-86.500000, -87.500000) " fill="#FFFFFF">
                        <rect id="Rectangle-17" fill-opacity="0.3" transform="translate(98.000000, 100.000000) scale(-1, 1) translate(-98.000000, -100.000000) " x="23" y="25" width="150" height="150" rx="10"></rect>
                        <rect id="Rectangle-17" opacity="0.1" transform="translate(87.000000, 88.000000) scale(-1, 1) translate(-87.000000, -88.000000) " x="12" y="13" width="150" height="150" rx="10"></rect>
                        <rect id="Rectangle-17" opacity="0.05" transform="translate(75.000000, 75.000000) scale(-1, 1) translate(-75.000000, -75.000000) " x="0" y="0" width="150" height="150" rx="10"></rect>
                    </g>
                    <g id="Group-25" transform="translate(29.000000, 36.000000)" font-family="Helvetica" font-size="32.448" font-weight="normal" line-spacing="40.56">
                        <text id="B&amp;E">
                            <tspan x="2.03615625" y="31" fill="#1C1C1C">B</tspan>
                            <tspan x="23.6787187" y="31" fill="#FF3060">&amp;</tspan>
                            <tspan x="45.3212812" y="31" fill="#1C1C1C">E</tspan>
                        </text>
                    </g>
                </g>
            </g>
        </g>
    </g>
</svg>