<?xml version="1.0" encoding="UTF-8" standalone="no"?>
<svg width="27px" height="29px" viewBox="0 0 27 29" version="1.1" xmlns="http://www.w3.org/2000/svg" xmlns:xlink="http://www.w3.org/1999/xlink">
    <!-- Generator: Sketch 50.2 (55047) - http://www.bohemiancoding.com/sketch -->
    <title>Fill 1</title>
    <desc>Created with Sketch.</desc>
    <defs></defs>
    <g id="PAGE-HOME-NEW-LAESCALA" stroke="none" stroke-width="1" fill="none" fill-rule="evenodd">
        <g id="Sub-Menu-Desktop" transform="translate(-853.000000, -167.000000)" fill="#1C1C1C">
            <g id="Group-48" transform="translate(842.000000, 94.000000)">
                <g id="Group-11" transform="translate(0.000000, 60.000000)">
                    <g id="Group-77">
                        <path d="M24.0221631,16.090126 L22.372042,19.088445 L19.0622635,19.0987644 L11,27.4998221 L19.0203719,35.9015915 L22.3376432,35.9015915 L23.9751627,38.9287336 L34.9766512,42 L38,30.4173651 L36.3202482,27.4777599 L38,24.4947421 L35.0444271,13 L24.0221631,16.090126 Z M22.6121525,19.5610022 L31.0878828,17.3046124 L26.2747742,26.0611556 L16.5140269,26.0906905 L22.6121525,19.5610022 Z M28.5767698,27.4998221 L33.4552702,18.704848 L35.7971139,27.5414555 L33.4590166,36.3581359 L28.5767698,27.4998221 Z M22.6295222,35.4699559 L16.5140269,28.9338626 L26.2522958,28.9338626 L31.0878828,37.6811539 L22.6295222,35.4699559 Z" id="Fill-1"></path>
                    </g>
                </g>
            </g>
        </g>
    </g>
</svg>