<?xml version="1.0" encoding="UTF-8"?>
<svg width="141px" height="141px" viewBox="0 0 141 141" version="1.1" xmlns="http://www.w3.org/2000/svg" xmlns:xlink="http://www.w3.org/1999/xlink">
    <!-- Generator: Sketch 61.2 (89653) - https://sketch.com -->
    <title>emprende</title>
    <desc>Created with Sketch.</desc>
    <defs>
        <path d="M72.4361278,84.074929 L12.8595431,84.074929 C6.22802947,84.074929 0.853405766,78.7003053 0.853405766,72.0687916 L0.853405766,12.4922069 C0.853405766,5.86069324 6.22802947,0.486069536 12.8595431,0.486069536 L72.4361278,0.486069536 C79.0676415,0.486069536 84.4422652,5.86069324 84.4422652,12.4922069 L84.4422652,72.0687916 C84.4422652,78.7003053 79.0676415,84.074929 72.4361278,84.074929" id="path-1"></path>
        <filter x="-58.0%" y="-46.1%" width="216.0%" height="216.0%" filterUnits="objectBoundingBox" id="filter-2">
            <feOffset dx="0" dy="10" in="SourceAlpha" result="shadowOffsetOuter1"></feOffset>
            <feGaussianBlur stdDeviation="14.5" in="shadowOffsetOuter1" result="shadowBlurOuter1"></feGaussianBlur>
            <feColorMatrix values="0 0 0 0 0   0 0 0 0 0   0 0 0 0 0  0 0 0 0.1 0" type="matrix" in="shadowBlurOuter1"></feColorMatrix>
        </filter>
        <path d="M0.78494806,25.6470426 C0.78494806,39.1484736 11.7125927,50.1831567 25.212402,50.1831567 L25.212402,50.1831567 C36.1189633,50.1831567 45.3404812,43.1883612 48.4867607,33.2370363 L48.4867607,33.2370363 C48.4867607,33.2370363 50.3469578,28.5954632 49.6203943,22.8283655 L49.6203943,22.8283655 C48.0861777,10.6714013 37.8153593,1.2001272 25.2675429,1.2001272 L25.2675429,1.2001272 C11.7661119,1.2001272 0.78494806,12.1456116 0.78494806,25.6470426 L0.78494806,25.6470426 Z M25.3794467,7.40835277 C29.4387958,7.40835277 33.1883824,8.72849269 36.2308671,10.9584588 L36.2308671,10.9584588 L21.0200657,10.9049396 L19.9172461,21.7660907 L12.0937142,21.9590842 L9.70481238,34.7858491 C8.08464066,32.0515052 7.16021836,28.8825207 7.16021836,25.4735107 L7.16021836,25.4735107 C7.16021836,21.245495 8.59874921,17.3645431 11.0071126,14.2636739 L11.0071126,14.2636739 C14.349629,10.0891774 19.4842273,7.40835277 25.2367289,7.40835277 L25.2367289,7.40835277 C25.259434,7.40835277 25.2837609,7.40997456 25.3080878,7.40997456 L25.3080878,7.40997456 C25.3324147,7.40997456 25.3567416,7.40835277 25.3794467,7.40835277 L25.3794467,7.40835277 Z M26.9915094,16.0735955 L41.0297541,16.1611724 C42.750477,18.9587662 43.7446364,22.2477634 43.7446364,25.7735425 L43.7446364,25.7735425 C43.7446364,28.4332839 43.1753869,30.9567946 42.1601442,33.2370363 L42.1601442,33.2370363 L17.3304855,33.2370363 L18.2986962,27.2672143 L36.2778991,27.2672143 L36.3184439,21.8163663 L26.3671189,21.8536676 L26.9915094,16.0735955 Z M24.5571974,44.1176489 C20.0923998,43.8468094 16.0492686,41.6882022 12.9857007,39.2068582 L12.9857007,39.2068582 L37.896449,39.2068582 C37.6320967,39.4549926 37.3596354,39.6966398 37.0823087,39.9269345 L37.0823087,39.9269345 C34.440407,41.8779521 31.1903328,43.5127199 27.6256307,43.9960144 L27.6256307,43.9960144 C26.8909582,44.0868349 26.1416896,44.1387322 25.3794467,44.1387322 L25.3794467,44.1387322 C25.1037418,44.1387322 24.8312805,44.1290015 24.5571974,44.1176489 L24.5571974,44.1176489 Z" id="path-3"></path>
    </defs>
    <g id="PAGE-HOME-NEW-LAESCALA" stroke="none" stroke-width="1" fill="none" fill-rule="evenodd">
        <g id="DESKTOP" transform="translate(-257.000000, -3149.000000)">
            <g id="Group-53" transform="translate(164.000000, 3167.000000)">
                <g id="Group-77">
                    <g id="emprende" transform="translate(121.000000, 0.000000)">
                        <g id="Group-28">
                            <g id="Group-27">
                                <g id="Fill-4">
                                    <use fill="black" fill-opacity="1" filter="url(#filter-2)" xlink:href="#path-1"></use>
                                    <use fill="#FFFFFF" fill-rule="evenodd" xlink:href="#path-1"></use>
                                </g>
                                <path d="M0.475527878,26.5445612 L0.475527878,73.3316822 C0.475527878,79.3144785 5.51281853,84.0614681 11.485884,83.7079171 L11.485884,83.7079171 C24.6856614,82.9278344 29.4002152,65.5373426 18.1903784,58.5263292 C9.5705459,53.1338658 3.3947562,44.1912964 0.475527878,26.5445612" id="Fill-6" fill="#FF3C62"></path>
                                <path d="M54.2550117,76.1383581 C54.3977295,76.2810759 54.5712614,76.3524348 54.778851,76.3524348 C54.9848187,76.3524348 55.1583506,76.2810759 55.3010685,76.1383581 C55.4421645,75.9956402 55.5135234,75.8204865 55.5135234,75.612897 C55.5135234,75.4069292 55.4421645,75.2317755 55.3010685,75.0890577 C55.1583506,74.944718 54.9848187,74.8733591 54.778851,74.8733591 C54.5712614,74.8733591 54.3977295,74.944718 54.2550117,75.0890577 C54.1122938,75.2317755 54.0425567,75.4069292 54.0425567,75.612897 C54.0425567,75.8204865 54.1122938,75.9956402 54.2550117,76.1383581 L54.2550117,76.1383581 Z M55.5135234,73.9327189 L55.760036,73.9327189 L55.760036,76.54705 L55.5135234,76.54705 L55.5135234,76.1821465 C55.3416133,76.4546078 55.0902353,76.5924603 54.7593894,76.5924603 C54.4934153,76.5924603 54.2663642,76.4983962 54.0782362,76.3086464 C53.8901081,76.1188965 53.7960441,75.8869801 53.7960441,75.612897 C53.7960441,75.3388139 53.8901081,75.1085192 54.0782362,74.9187693 C54.2663642,74.7290195 54.4934153,74.6349555 54.7593894,74.6349555 C55.0902353,74.6349555 55.3416133,74.7711861 55.5135234,75.0452692 L55.5135234,73.9327189 Z" id="Fill-8" fill="#000000"></path>
                                <path d="M57.1463451,74.8736835 C56.9517299,74.8736835 56.7895506,74.9320681 56.6581853,75.0472154 C56.5284418,75.1639845 56.4505957,75.3131895 56.424647,75.498074 L57.8193894,75.498074 C57.7934407,75.3002152 57.7188382,75.1477666 57.5907166,75.0374846 C57.4642167,74.9288245 57.3150117,74.8736835 57.1463451,74.8736835 M57.1463451,74.6352798 C57.4236718,74.6352798 57.6458575,74.7325874 57.8161459,74.9272027 C57.988056,75.1234397 58.0723892,75.3537344 58.0723892,75.6213303 C58.0723892,75.6489008 58.0707674,75.686202 58.0659021,75.7364776 L56.424647,75.7364776 C56.4505957,75.9262275 56.5300636,76.0754325 56.6662943,76.1873362 C56.8025249,76.2976182 56.9695696,76.3527592 57.1690502,76.3527592 C57.3101463,76.3527592 57.4334026,76.3235669 57.5371974,76.2651823 C57.6409922,76.2067978 57.7188382,76.1305735 57.7707356,76.0348876 L57.9864342,76.1630093 C57.9053445,76.2943746 57.7934407,76.3997912 57.6507229,76.4760155 C57.5096269,76.5538616 57.3474475,76.5927846 57.1641849,76.5927846 C56.8706402,76.5927846 56.6322366,76.5003424 56.4473521,76.3154579 C56.2640895,76.1321953 56.1716472,75.8970352 56.1716472,75.6132213 C56.1716472,75.3342728 56.2624677,75.1007346 56.4441085,74.9142283 C56.6257494,74.7277221 56.8592877,74.6352798 57.1463451,74.6352798" id="Fill-10" fill="#000000"></path>
                                <polygon id="Fill-12" fill="#000000" points="59.8962582 76.0543492 60.8936612 76.0543492 60.8936612 76.5473744 59.3805279 76.5473744 59.3805279 73.9330432 59.8962582 73.9330432"></polygon>
                                <path d="M61.6930432,75.992721 C61.7903509,76.0916504 61.9136072,76.1403042 62.0628122,76.1403042 C62.2120172,76.1403042 62.3368953,76.0916504 62.4342029,75.992721 C62.5331323,75.8937916 62.5817861,75.7672917 62.5817861,75.6132213 C62.5817861,75.4591509 62.5331323,75.332651 62.4342029,75.2337216 C62.3368953,75.136414 62.2120172,75.0861384 62.0628122,75.0861384 C61.9136072,75.0861384 61.7903509,75.136414 61.6930432,75.2337216 C61.5957356,75.332651 61.5470818,75.4591509 61.5470818,75.6132213 C61.5470818,75.7672917 61.5957356,75.8937916 61.6930432,75.992721 L61.6930432,75.992721 Z M62.5817861,74.6790683 L63.0634588,74.6790683 L63.0634588,76.5473744 L62.5817861,76.5473744 L62.5817861,76.3268105 C62.4374465,76.5084513 62.2347223,76.5992718 61.9736135,76.5992718 C61.7238573,76.5992718 61.5114024,76.5052078 61.3330051,76.3138361 C61.1546078,76.1240863 61.0654092,75.890548 61.0654092,75.6132213 C61.0654092,75.3375164 61.1546078,75.1039782 61.3330051,74.9126065 C61.5114024,74.7228567 61.7238573,74.6271709 61.9736135,74.6271709 C62.2347223,74.6271709 62.4374465,74.7179913 62.5817861,74.8996322 L62.5817861,74.6790683 Z" id="Fill-14" fill="#000000"></path>
                                <polygon id="Fill-16" fill="#000000" points="64.9732828 76.0543492 66.0761024 76.0543492 66.0761024 76.5473744 64.4575525 76.5473744 64.4575525 73.9330432 66.0566409 73.9330432 66.0566409 74.4260685 64.9732828 74.4260685 64.9732828 74.9823437 65.9625768 74.9823437 65.9625768 75.4672599 64.9732828 75.4672599"></polygon>
                                <path d="M66.8599152,75.2098813 C66.8599152,75.2601569 66.8923511,75.3007017 66.9588446,75.3315158 C67.0253381,75.3623299 67.104806,75.3899004 67.2004918,75.4142273 C67.2945559,75.4369324 67.3886199,75.4677464 67.4843057,75.5034259 C67.5783697,75.5391054 67.6578376,75.5991117 67.7243311,75.6850668 C67.7908247,75.7694 67.8232605,75.8748166 67.8232605,76.0013165 C67.8232605,76.1943099 67.7519016,76.3418932 67.6091838,76.4440661 C67.4648442,76.5478609 67.2864469,76.5997583 67.0723702,76.5997583 C66.6896269,76.5997583 66.4268963,76.4521751 66.2874221,76.1553869 L66.7074666,75.9202268 C66.7609858,76.0824062 66.8842421,76.1618741 67.0723702,76.1618741 C67.2442803,76.1618741 67.3302353,76.1083549 67.3302353,76.0013165 C67.3302353,75.9526627 67.2977994,75.9121179 67.2313059,75.879682 C67.1664342,75.8488679 67.0853445,75.8212974 66.9912805,75.7969705 C66.8955947,75.7710218 66.8015306,75.7402078 66.7074666,75.7029065 C66.6117808,75.6656053 66.5323129,75.6072207 66.4658194,75.526131 C66.3993258,75.4450413 66.36689,75.3428683 66.36689,75.2212338 C66.36689,75.0363494 66.4350053,74.8920098 66.5696142,74.7865932 C66.7058448,74.6795548 66.8745113,74.6276574 67.0772355,74.6276574 C67.2280623,74.6276574 67.3659148,74.6617151 67.4907929,74.7298304 C67.615671,74.7979457 67.7146004,74.8968751 67.7859593,75.023375 L67.3756455,75.2471825 C67.3156392,75.1206826 67.2167098,75.0574327 67.0772355,75.0574327 C67.0139856,75.0574327 66.9620882,75.070407 66.9215434,75.0979775 C66.8809985,75.125548 66.8599152,75.1628493 66.8599152,75.2098813" id="Fill-18" fill="#000000"></path>
                                <path d="M69.0415518,76.5997583 C68.7609816,76.5997583 68.5258215,76.5056943 68.3376934,76.3159445 C68.1495654,76.1261946 68.0555014,75.8926563 68.0555014,75.6137079 C68.0555014,75.3347594 68.1495654,75.1012211 68.3376934,74.9114713 C68.5258215,74.7217214 68.7609816,74.6276574 69.0415518,74.6276574 C69.2231927,74.6276574 69.3886156,74.6714458 69.5378206,74.7574009 C69.6886474,74.8449777 69.8005512,74.9617469 69.8783973,75.1093301 L69.4632181,75.3525991 C69.4259169,75.274753 69.3691541,75.2131249 69.2929298,75.1693364 C69.2183273,75.1239262 69.1323723,75.1012211 69.0383082,75.1012211 C68.8939686,75.1012211 68.7739559,75.1498749 68.6798919,75.2455607 C68.5842061,75.3412466 68.5371741,75.4645029 68.5371741,75.6137079 C68.5371741,75.7596693 68.5842061,75.8813038 68.6798919,75.9769896 C68.7739559,76.0742972 68.8939686,76.1213292 69.0383082,76.1213292 C69.1356159,76.1213292 69.2215709,76.1002459 69.2977952,76.0564575 C69.3740195,76.0126691 69.4307823,75.9526627 69.4680835,75.8748166 L69.8865063,76.1132203 C69.8037948,76.2608035 69.6886474,76.3791944 69.5378206,76.4667713 C69.3886156,76.5559699 69.2231927,76.5997583 69.0415518,76.5997583" id="Fill-20" fill="#000000"></path>
                                <path d="M70.6855639,75.992721 C70.7828715,76.0916504 70.9061278,76.1403042 71.0553328,76.1403042 C71.2045378,76.1403042 71.3294159,76.0916504 71.4267236,75.992721 C71.525653,75.8937916 71.5743068,75.7672917 71.5743068,75.6132213 C71.5743068,75.4591509 71.525653,75.332651 71.4267236,75.2337216 C71.3294159,75.136414 71.2045378,75.0861384 71.0553328,75.0861384 C70.9061278,75.0861384 70.7828715,75.136414 70.6855639,75.2337216 C70.5882563,75.332651 70.5396025,75.4591509 70.5396025,75.6132213 C70.5396025,75.7672917 70.5882563,75.8937916 70.6855639,75.992721 L70.6855639,75.992721 Z M71.5743068,74.6790683 L72.0559794,74.6790683 L72.0559794,76.5473744 L71.5743068,76.5473744 L71.5743068,76.3268105 C71.4299671,76.5084513 71.227243,76.5992718 70.9661342,76.5992718 C70.716378,76.5992718 70.503923,76.5052078 70.3255258,76.3138361 C70.1471285,76.1240863 70.0579298,75.890548 70.0579298,75.6132213 C70.0579298,75.3375164 70.1471285,75.1039782 70.3255258,74.9126065 C70.503923,74.7228567 70.716378,74.6271709 70.9661342,74.6271709 C71.227243,74.6271709 71.4299671,74.7179913 71.5743068,74.8996322 L71.5743068,74.6790683 Z" id="Fill-22" fill="#000000"></path>
                                <polygon id="Fill-24" fill="#000000" points="72.4943502 76.548834 72.9760229 76.548834 72.9760229 73.8209773 72.4943502 73.8209773"></polygon>
                                <path d="M73.9468285,75.992721 C74.0441361,76.0916504 74.1673924,76.1403042 74.3165974,76.1403042 C74.4658024,76.1403042 74.5906805,76.0916504 74.6879881,75.992721 C74.7869175,75.8937916 74.8355713,75.7672917 74.8355713,75.6132213 C74.8355713,75.4591509 74.7869175,75.332651 74.6879881,75.2337216 C74.5906805,75.136414 74.4658024,75.0861384 74.3165974,75.0861384 C74.1673924,75.0861384 74.0441361,75.136414 73.9468285,75.2337216 C73.8495209,75.332651 73.8008671,75.4591509 73.8008671,75.6132213 C73.8008671,75.7672917 73.8495209,75.8937916 73.9468285,75.992721 L73.9468285,75.992721 Z M74.8355713,74.6790683 L75.317244,74.6790683 L75.317244,76.5473744 L74.8355713,76.5473744 L74.8355713,76.3268105 C74.6912317,76.5084513 74.4885075,76.5992718 74.2273988,76.5992718 C73.9776426,76.5992718 73.7651876,76.5052078 73.5867903,76.3138361 C73.408393,76.1240863 73.3191944,75.890548 73.3191944,75.6132213 C73.3191944,75.3375164 73.408393,75.1039782 73.5867903,74.9126065 C73.7651876,74.7228567 73.9776426,74.6271709 74.2273988,74.6271709 C74.4885075,74.6271709 74.6912317,74.7179913 74.8355713,74.8996322 L74.8355713,74.6790683 Z" id="Fill-26" fill="#000000"></path>
                            </g>
                            <g id="Group-30" transform="translate(18.506466, 7.153911)">
                                <mask id="mask-4" fill="white">
                                    <use xlink:href="#path-3"></use>
                                </mask>
                                <g id="Clip-29"></g>
                                <polygon id="Fill-28" fill="#FF3C62" mask="url(#mask-4)" points="0.78494806 50.1847785 50.3469578 50.1847785 50.3469578 1.2001272 0.78494806 1.2001272"></polygon>
                            </g>
                            <g id="Group-35" transform="translate(7.153911, 63.916684)" fill="#FFFFFF">
                                <path d="M8.26076744,2.15503922 C7.38013356,1.02302735 6.05350647,0.374309943 4.62146279,0.374309943 C2.07686877,0.374309943 0.00908204367,2.44209667 0.00908204367,4.98669069 C0.00908204367,6.29223447 0.55238287,7.54101548 1.50113208,8.41354039 C1.51410642,8.42651473 1.53194615,8.43300191 1.54978588,8.43300191 C1.55951664,8.43300191 1.5692474,8.42975832 1.57735637,8.42651473 C1.60330507,8.41516218 1.6211448,8.38921348 1.6211448,8.36164299 L1.619523,7.56696417 C1.619523,7.55074624 1.61303583,7.5345283 1.60330507,7.52155395 C1.00486326,6.8112084 0.675639177,5.911113 0.675639177,4.98669069 C0.675639177,2.8102438 2.4450159,1.04086708 4.62146279,1.04086708 C5.69833369,1.04086708 6.70384566,1.46902056 7.45635785,2.24748145 C7.4693322,2.26207759 7.48717193,2.27018656 7.50663345,2.27018656 L8.20400466,2.27018656 C8.23157515,2.27018656 8.25590206,2.25396862 8.2688764,2.22964172 C8.28022896,2.20531482 8.27698537,2.17612254 8.26076744,2.15503922" id="Fill-31"></path>
                                <path d="M8.72638435,2.93495972 L7.29758427,2.93495972 C7.00890502,2.93495972 6.77374497,3.17174157 6.77374497,3.46042082 L6.77374497,4.92165677 C6.77374497,5.07248357 6.65048866,5.19573988 6.49966186,5.19573988 L5.03842591,5.19573988 C4.74812487,5.19573988 4.51296481,5.43252173 4.51296481,5.72120098 L4.51296481,7.18243693 C4.51296481,7.33326373 4.3897085,7.45652003 4.2388817,7.45652003 L2.77764575,7.45652003 C2.4889665,7.45652003 2.25218465,7.69330189 2.25218465,7.98198113 L2.25218465,9.15453784 C3.4150106,10.3757484 3.62422196,10.5946905 4.03777931,11.0277093 C4.40592644,11.4136962 5.02382976,11.4120744 5.38873331,11.0212222 L7.88791711,8.35337185 C8.7393587,7.52787895 9.26806339,6.36991838 9.26806339,5.0903233 C9.26806339,4.31024062 9.07182637,3.57556816 8.72638435,2.93495972" id="Fill-33"></path>
                            </g>
                        </g>
                    </g>
                </g>
            </g>
        </g>
    </g>
</svg>