<?xml version="1.0" encoding="UTF-8" standalone="no"?>
<svg width="46px" height="46px" viewBox="0 0 46 46" version="1.1" xmlns="http://www.w3.org/2000/svg" xmlns:xlink="http://www.w3.org/1999/xlink">
    <!-- Generator: Sketch 50.2 (55047) - http://www.bohemiancoding.com/sketch -->
    <title>Group 54</title>
    <desc>Created with Sketch.</desc>
    <defs></defs>
    <g id="PAGE-HOME-NEW-LAESCALA" stroke="none" stroke-width="1" fill="none" fill-rule="evenodd">
        <g id="DESKTOP" transform="translate(-421.000000, -329.000000)">
            <g id="Group-54" transform="translate(422.000000, 330.000000)">
                <g id="Group-55">
                    <circle id="Oval-5" stroke="#FFFFFF" stroke-width="2" cx="22" cy="22" r="22"></circle>
                    <polygon id="Path-4" fill="#FFFFFF" points="20 30 20 16 28 23"></polygon>
                </g>
            </g>
        </g>
    </g>
</svg>